{
  "info": {
    "_postman_id": "17de6d00-23af-43d1-a2c8-bb26acbd207e",
    "name": "FleetManagement-Create",
    "schema": "https://schema.getpostman.com/json/collection/v2.0.0/collection.json"
  },
  "item": [
    {
      "name": "200 Response",
      "_postman_id": "bed1b816-dfbd-42d8-8772-552f90c163e9",
      "protocolProfileBehavior": {
        "disableBodyPruning": true
      },
      "request": {
        "auth": {
          "type": "basic",
          "basic": {
            "password": "apipass@123",
            "username": "apiuser"
          }
        },
        "method": "POST",
        "header": [],
        "body": {
          "mode": "raw",
          "raw": "{\r\n  \"fleet-name\": \"FleetSample\",\r\n  \"fleet-model\": \"FleetModel\",\r\n  \"attributes\": {\r\n  \"portrait-field1\": \"FleetName1\",\r\n  \"portrait-field2\": \"FleetName2\"\r\n  }\r\n}",
          "options": {
            "raw": {
              "language": "json"
            }
          }
        },
        "url": {
          "raw": "http://52.226.146.240/v1.0/invoke/fleetsvc/method/api/fleets?appName=lcs-ms",
          "protocol": "http",
          "host": [
            "52",
            "226",
            "146",
            "240"
          ],
          "path": [
            "v1.0",
            "invoke",
            "fleetsvc",
            "method",
            "api",
            "fleets"
          ],
          "query": [
            {
              "key": "appName",
              "value": "lcs-ms"
            }
          ]
        }
      },
      "response": []
    },
    {
      "name": "400 Response",
      "_postman_id": "9818e4fe-211d-48ec-945d-707ef080fd4b",
      "protocolProfileBehavior": {
        "disableBodyPruning": true
      },
      "request": {
        "auth": {
          "type": "basic",
          "basic": {
            "password": "apipass@123",
            "username": "apiuser"
          }
        },
        "method": "POST",
        "header": [],
        "body": {
          "mode": "raw",
          "raw": "{\r\n  \"fleet-name\": \"\",\r\n  \"fleet-model\": \"FleetModel\",\r\n  \"attributes\": {\r\n  \"portrait-field1\": \"FleetName1\",\r\n  \"portrait-field2\": \"FleetName2\"\r\n  }\r\n}",
          "options": {
            "raw": {
              "language": "json"
            }
          }
        },
        "url": {
          "raw": "http://52.226.146.240/v1.0/invoke/fleetsvc/method/api/fleets?appName=lcs-ms",
          "protocol": "http",
          "host": [
            "52",
            "226",
            "146",
            "240"
          ],
          "path": [
            "v1.0",
            "invoke",
            "fleetsvc",
            "method",
            "api",
            "fleets"
          ],
          "query": [
            {
              "key": "appName",
              "value": "lcs-ms"
            }
          ]
        }
      },
      "response": []
    }
  ]
}